<?xml version="1.0" encoding="utf-8"?>
<!-- Generator: Adobe Illustrator 16.0.0, SVG Export Plug-In . SVG Version: 6.00 Build 0)  -->
<!DOCTYPE svg PUBLIC "-//W3C//DTD SVG 1.1//EN" "http://www.w3.org/Graphics/SVG/1.1/DTD/svg11.dtd">
<svg version="1.1" id="Layer_1" xmlns="http://www.w3.org/2000/svg" xmlns:xlink="http://www.w3.org/1999/xlink" x="0px" y="0px"
	 width="60.28px" height="57.982px" viewBox="0 0 60.28 57.982" enable-background="new 0 0 60.28 57.982" xml:space="preserve">
<g>
	<path fill="#FBEA1C" d="M59.881,29.667c0.489,0.547,0.535,1.307,0.102,1.694L30.416,57.759c-0.434,0.389-1.183,0.258-1.672-0.291
		L2.714,28.317c-0.488-0.549-0.535-1.308-0.102-1.694L32.181,0.223c0.434-0.388,1.182-0.257,1.671,0.291L59.881,29.667z"/>
	<path fill="#5CBA9B" d="M57.565,29.667c0.489,0.547,0.535,1.307,0.102,1.694L28.099,57.759c-0.434,0.389-1.183,0.258-1.672-0.291
		L0.398,28.317c-0.488-0.549-0.534-1.308-0.101-1.694L29.865,0.223c0.434-0.388,1.182-0.257,1.671,0.291L57.565,29.667z"/>
	<g>
		<path fill="#221B46" d="M14.928,42.319c-1.432-0.414-2.766-1.061-2.766-2.779c0-1.611,1.308-2.59,2.766-2.672v-0.963h0.702v0.949
			c0.949,0.014,2.022,0.359,2.711,1.047l-0.936,0.865c-0.426-0.535-1.129-0.811-1.775-0.824v3.275
			c1.403,0.469,2.863,1.115,2.863,2.932c0,1.732-1.308,2.738-2.863,2.766v0.992h-0.702v-0.992c-1.224-0.027-2.312-0.523-3.069-1.363
			l1.005-0.852c0.496,0.701,1.419,1.1,2.064,1.113V42.319z M14.928,37.942c-0.798,0.055-1.458,0.605-1.458,1.514
			c0,0.867,0.604,1.307,1.458,1.555V37.942z M15.63,45.813c0.799-0.041,1.542-0.564,1.542-1.65c0-0.867-0.661-1.363-1.542-1.652
			V45.813z"/>
	</g>
	<g>
		<path fill="#221B46" d="M27.171,32.671c-2.554-0.738-4.934-1.891-4.934-4.959c0-2.874,2.332-4.615,4.934-4.764V21.23h1.252v1.694
			c1.693,0.023,3.608,0.639,4.836,1.866l-1.669,1.546c-0.759-0.958-2.015-1.449-3.167-1.475v5.842
			c2.504,0.836,5.107,1.99,5.107,5.232c0,3.092-2.332,4.883-5.107,4.934v1.768h-1.252V40.87c-2.184-0.051-4.125-0.934-5.475-2.432
			l1.792-1.521c0.884,1.252,2.53,1.965,3.683,1.99V32.671z M27.171,24.862c-1.424,0.099-2.602,1.081-2.602,2.7
			c0,1.547,1.079,2.334,2.602,2.775V24.862z M28.423,38.907c1.425-0.076,2.751-1.008,2.751-2.947c0-1.549-1.18-2.432-2.751-2.945
			V38.907z"/>
	</g>
	<g>
		<path fill="#221B46" d="M42.022,17.563c-3.847-1.112-7.435-2.85-7.435-7.473c0-4.329,3.516-6.955,7.435-7.178V0.324h1.888v2.553
			c2.551,0.036,5.438,0.963,7.286,2.812L48.681,8.02c-1.145-1.444-3.034-2.185-4.771-2.222V14.6
			c3.772,1.262,7.695,2.999,7.695,7.882c0,4.661-3.515,7.361-7.695,7.437v2.665h-1.888v-2.665c-3.289-0.075-6.215-1.408-8.248-3.665
			l2.699-2.29c1.333,1.885,3.812,2.957,5.549,2.996V17.563z M42.022,5.798c-2.146,0.147-3.919,1.629-3.919,4.068
			c0,2.33,1.625,3.516,3.919,4.181V5.798z M43.91,26.959c2.146-0.112,4.145-1.519,4.145-4.441c0-2.33-1.777-3.662-4.145-4.438
			V26.959z"/>
	</g>
</g>
</svg>
